%YAML 1.1
%TAG !u! tag:unity3d.com,2011:
--- !u!1001 &100100000
Prefab:
  m_ObjectHideFlags: 1
  serializedVersion: 2
  m_Modification:
    m_TransformParent: {fileID: 0}
    m_Modifications: []
    m_RemovedComponents: []
  m_ParentPrefab: {fileID: 0}
  m_RootGameObject: {fileID: 1261278186047200}
  m_IsPrefabParent: 1
--- !u!1 &1261278186047200
GameObject:
  m_ObjectHideFlags: 0
  m_PrefabParentObject: {fileID: 0}
  m_PrefabInternal: {fileID: 100100000}
  serializedVersion: 5
  m_Component:
  - component: {fileID: 4811874053791766}
  - component: {fileID: 114562885405963424}
  m_Layer: 0
  m_Name: Healer_Cure
  m_TagString: Untagged
  m_Icon: {fileID: 0}
  m_NavMeshLayer: 0
  m_StaticEditorFlags: 0
  m_IsActive: 1
--- !u!4 &4811874053791766
Transform:
  m_ObjectHideFlags: 1
  m_PrefabParentObject: {fileID: 0}
  m_PrefabInternal: {fileID: 100100000}
  m_GameObject: {fileID: 1261278186047200}
  m_LocalRotation: {x: 0, y: 0, z: 0, w: 1}
  m_LocalPosition: {x: 201.20001, y: 551, z: 0}
  m_LocalScale: {x: 1, y: 1, z: 1}
  m_Children: []
  m_Father: {fileID: 0}
  m_RootOrder: 0
  m_LocalEulerAnglesHint: {x: 0, y: 0, z: 0}
--- !u!114 &114562885405963424
MonoBehaviour:
  m_ObjectHideFlags: 1
  m_PrefabParentObject: {fileID: 0}
  m_PrefabInternal: {fileID: 100100000}
  m_GameObject: {fileID: 1261278186047200}
  m_Enabled: 1
  m_EditorHideFlags: 0
  m_Script: {fileID: 11500000, guid: 1932aa81f5b30e74f9ac64cbd38cf47c, type: 3}
  m_Name: 
  m_EditorClassIdentifier: 
  charClass: {fileID: 0}
  skillIconSprite: {fileID: 21300000, guid: 4b85e855e4c0bce44875322d7710e387, type: 3}
  skillName: "\uC815\uD654"
  skillDesc: "\uC544\uAD70 \uB300\uC0C1\uC758 \uB514\uBC84\uD504\uB97C \uBAA8\uB450
    \uC81C\uAC70\uD55C\uB2E4."
  sfxClip: {fileID: 8300000, guid: f777bc2fcfca0fe4b989fa27fb5c67b7, type: 3}
  manaCost: 10
  coolTime: 3
  castingTime: 0.5
