%YAML 1.1
%TAG !u! tag:unity3d.com,2011:
--- !u!1001 &100100000
Prefab:
  m_ObjectHideFlags: 1
  serializedVersion: 2
  m_Modification:
    m_TransformParent: {fileID: 0}
    m_Modifications: []
    m_RemovedComponents: []
  m_ParentPrefab: {fileID: 0}
  m_RootGameObject: {fileID: 1790635906917386}
  m_IsPrefabParent: 1
--- !u!1 &1790635906917386
GameObject:
  m_ObjectHideFlags: 0
  m_PrefabParentObject: {fileID: 0}
  m_PrefabInternal: {fileID: 100100000}
  serializedVersion: 5
  m_Component:
  - component: {fileID: 4313093948202812}
  - component: {fileID: 114082784063231534}
  m_Layer: 0
  m_Name: Healer_ImmediateHeal
  m_TagString: Untagged
  m_Icon: {fileID: 0}
  m_NavMeshLayer: 0
  m_StaticEditorFlags: 0
  m_IsActive: 1
--- !u!4 &4313093948202812
Transform:
  m_ObjectHideFlags: 1
  m_PrefabParentObject: {fileID: 0}
  m_PrefabInternal: {fileID: 100100000}
  m_GameObject: {fileID: 1790635906917386}
  m_LocalRotation: {x: 0, y: 0, z: 0, w: 1}
  m_LocalPosition: {x: 1279.441, y: 589.91235, z: 0}
  m_LocalScale: {x: 1, y: 1, z: 1}
  m_Children: []
  m_Father: {fileID: 0}
  m_RootOrder: 0
  m_LocalEulerAnglesHint: {x: 0, y: 0, z: 0}
--- !u!114 &114082784063231534
MonoBehaviour:
  m_ObjectHideFlags: 1
  m_PrefabParentObject: {fileID: 0}
  m_PrefabInternal: {fileID: 100100000}
  m_GameObject: {fileID: 1790635906917386}
  m_Enabled: 1
  m_EditorHideFlags: 0
  m_Script: {fileID: 11500000, guid: d83c88a3e71874241a8140c2b65a800c, type: 3}
  m_Name: 
  m_EditorClassIdentifier: 
  charClass: {fileID: 0}
  skillIconSprite: {fileID: 21300000, guid: d442d309cd272484fa0beb501ddb9184, type: 3}
  skillName: "\uD65C\uB825\uC758 \uBE5B"
  skillDesc: "\uB300\uC0C1\uC758 \uC0DD\uBA85\uB825\uC744 {0}\uB9CC\uD07C \uD68C\uBCF5\uD569\uB2C8\uB2E4."
  sfxClip: {fileID: 8300000, guid: a4b46d0222fae2a46a3dce8eb539b7fa, type: 3}
  manaCost: 10
  coolTime: 2.5
  castingTime: 2.5
  healValue: 250
