%YAML 1.1
%TAG !u! tag:unity3d.com,2011:
--- !u!1001 &100100000
Prefab:
  m_ObjectHideFlags: 1
  serializedVersion: 2
  m_Modification:
    m_TransformParent: {fileID: 0}
    m_Modifications: []
    m_RemovedComponents: []
  m_ParentPrefab: {fileID: 0}
  m_RootGameObject: {fileID: 1092540785754252}
  m_IsPrefabParent: 1
--- !u!1 &1092540785754252
GameObject:
  m_ObjectHideFlags: 0
  m_PrefabParentObject: {fileID: 0}
  m_PrefabInternal: {fileID: 100100000}
  serializedVersion: 5
  m_Component:
  - component: {fileID: 4717038698238552}
  - component: {fileID: 114886950892372292}
  m_Layer: 0
  m_Name: Monster_First_WholeAttack
  m_TagString: Untagged
  m_Icon: {fileID: 0}
  m_NavMeshLayer: 0
  m_StaticEditorFlags: 0
  m_IsActive: 1
--- !u!4 &4717038698238552
Transform:
  m_ObjectHideFlags: 1
  m_PrefabParentObject: {fileID: 0}
  m_PrefabInternal: {fileID: 100100000}
  m_GameObject: {fileID: 1092540785754252}
  m_LocalRotation: {x: 0, y: 0, z: 0, w: 1}
  m_LocalPosition: {x: 201.20001, y: 551, z: 0}
  m_LocalScale: {x: 1, y: 1, z: 1}
  m_Children: []
  m_Father: {fileID: 0}
  m_RootOrder: 0
  m_LocalEulerAnglesHint: {x: 0, y: 0, z: 0}
--- !u!114 &114886950892372292
MonoBehaviour:
  m_ObjectHideFlags: 1
  m_PrefabParentObject: {fileID: 0}
  m_PrefabInternal: {fileID: 100100000}
  m_GameObject: {fileID: 1092540785754252}
  m_Enabled: 1
  m_EditorHideFlags: 0
  m_Script: {fileID: 11500000, guid: db03862707545114ebbe77bd11513ccb, type: 3}
  m_Name: 
  m_EditorClassIdentifier: 
  charClass: {fileID: 0}
  skillIconSprite: {fileID: 21300000, guid: b1fe9398bfb9ebc4d928a2586b60d15b, type: 3}
  skillName: "\uB0B4\uB824 \uCC0D\uAE30"
  skillDesc: "\uBC14\uB2E5\uC744 \uAC15\uD558\uAC8C \uB0B4\uB9AC\uCCD0 \uC801 \uC804\uCCB4\uC5D0\uAC8C
    {0}\uC758 \uD53C\uD574\uB97C \uC785\uD799\uB2C8\uB2E4."
  sfxClip: {fileID: 8300000, guid: 14debf9d3ede2c440a8a2f46c98e7d12, type: 3}
  manaCost: 1
  coolTime: 20
  castingTime: 3
  damageValue: 450
