%YAML 1.1
%TAG !u! tag:unity3d.com,2011:
--- !u!1001 &100100000
Prefab:
  m_ObjectHideFlags: 1
  serializedVersion: 2
  m_Modification:
    m_TransformParent: {fileID: 0}
    m_Modifications: []
    m_RemovedComponents: []
  m_ParentPrefab: {fileID: 0}
  m_RootGameObject: {fileID: 1316935478644082}
  m_IsPrefabParent: 1
--- !u!1 &1316935478644082
GameObject:
  m_ObjectHideFlags: 0
  m_PrefabParentObject: {fileID: 0}
  m_PrefabInternal: {fileID: 100100000}
  serializedVersion: 5
  m_Component:
  - component: {fileID: 4399995286284582}
  - component: {fileID: 114971226063208326}
  m_Layer: 0
  m_Name: Monster_Third_DeathRing
  m_TagString: Untagged
  m_Icon: {fileID: 0}
  m_NavMeshLayer: 0
  m_StaticEditorFlags: 0
  m_IsActive: 1
--- !u!4 &4399995286284582
Transform:
  m_ObjectHideFlags: 1
  m_PrefabParentObject: {fileID: 0}
  m_PrefabInternal: {fileID: 100100000}
  m_GameObject: {fileID: 1316935478644082}
  m_LocalRotation: {x: 0, y: 0, z: 0, w: 1}
  m_LocalPosition: {x: 201.20001, y: 551, z: 0}
  m_LocalScale: {x: 1, y: 1, z: 1}
  m_Children: []
  m_Father: {fileID: 0}
  m_RootOrder: 0
  m_LocalEulerAnglesHint: {x: 0, y: 0, z: 0}
--- !u!114 &114971226063208326
MonoBehaviour:
  m_ObjectHideFlags: 1
  m_PrefabParentObject: {fileID: 0}
  m_PrefabInternal: {fileID: 100100000}
  m_GameObject: {fileID: 1316935478644082}
  m_Enabled: 1
  m_EditorHideFlags: 0
  m_Script: {fileID: 11500000, guid: 087b0eae523e24641a8c5b2f3a22519a, type: 3}
  m_Name: 
  m_EditorClassIdentifier: 
  charClass: {fileID: 0}
  skillIconSprite: {fileID: 21300000, guid: 58691a4ef3e669e49a8d9757a45c81f3, type: 3}
  skillName: "\uC8FD\uC74C\uC758 \uACE0\uB9AC"
  skillDesc: "\uC815\uD654 \uB418\uC9C0 \uC54A\uC73C\uBA74 {0}\uCD08 \uD6C4 {1}\uC758
    \uD53C\uD574\uB97C \uC785\uD788\uB294 \uC800\uC8FC\uB97C \uAC81\uB2C8\uB2E4."
  sfxClip: {fileID: 8300000, guid: 84f017e466c075346bd7e44312e28639, type: 3}
  manaCost: 0
  coolTime: 0
  castingTime: 0
  damageValue: 0
  effectDelayTime: 0
