%YAML 1.1
%TAG !u! tag:unity3d.com,2011:
--- !u!1001 &100100000
Prefab:
  m_ObjectHideFlags: 1
  serializedVersion: 2
  m_Modification:
    m_TransformParent: {fileID: 0}
    m_Modifications: []
    m_RemovedComponents: []
  m_ParentPrefab: {fileID: 0}
  m_RootGameObject: {fileID: 1293508391643386}
  m_IsPrefabParent: 1
--- !u!1 &1293508391643386
GameObject:
  m_ObjectHideFlags: 0
  m_PrefabParentObject: {fileID: 0}
  m_PrefabInternal: {fileID: 100100000}
  serializedVersion: 5
  m_Component:
  - component: {fileID: 4497362320519582}
  - component: {fileID: 114543135542707832}
  m_Layer: 0
  m_Name: Thief_StrikeWeakPoint
  m_TagString: Untagged
  m_Icon: {fileID: 0}
  m_NavMeshLayer: 0
  m_StaticEditorFlags: 0
  m_IsActive: 1
--- !u!4 &4497362320519582
Transform:
  m_ObjectHideFlags: 1
  m_PrefabParentObject: {fileID: 0}
  m_PrefabInternal: {fileID: 100100000}
  m_GameObject: {fileID: 1293508391643386}
  m_LocalRotation: {x: 0, y: 0, z: 0, w: 1}
  m_LocalPosition: {x: 201.20001, y: 551, z: 0}
  m_LocalScale: {x: 1, y: 1, z: 1}
  m_Children: []
  m_Father: {fileID: 0}
  m_RootOrder: 0
  m_LocalEulerAnglesHint: {x: 0, y: 0, z: 0}
--- !u!114 &114543135542707832
MonoBehaviour:
  m_ObjectHideFlags: 1
  m_PrefabParentObject: {fileID: 0}
  m_PrefabInternal: {fileID: 100100000}
  m_GameObject: {fileID: 1293508391643386}
  m_Enabled: 1
  m_EditorHideFlags: 0
  m_Script: {fileID: 11500000, guid: 5c2fe53694caf924ca367d732f1db868, type: 3}
  m_Name: 
  m_EditorClassIdentifier: 
  charClass: {fileID: 0}
  skillIconSprite: {fileID: 21300000, guid: 6e5a08c2bf758f44183e3280ef5aa2c5, type: 3}
  skillName: "\uC57D\uC810 \uCC0C\uB974\uAE30"
  skillDesc: 1
  sfxClip: {fileID: 8300000, guid: 34b75ca667de4374b9dc2d4575bc234f, type: 3}
  manaCost: 0
  coolTime: 15
  castingTime: 0.5
