%YAML 1.1
%TAG !u! tag:unity3d.com,2011:
--- !u!1045 &1
EditorBuildSettings:
  m_ObjectHideFlags: 0
  serializedVersion: 2
  m_Scenes:
  - enabled: 1
    path: Assets/1_Scenes/Title.unity
    guid: 00d58c2298523fb4984458634eaa351a
  - enabled: 1
    path: Assets/1_Scenes/StageSelect.unity
    guid: 89cd93feab2166847a2b98e882234719
  - enabled: 1
    path: Assets/1_Scenes/Game.unity
    guid: 99c9720ab356a0642a771bea13969a05
